[
    {
        "scope": "https://radar.squat.net:443",
        "method": "GET",
        "path": "/en/events/category/music-concert/city/Zurich",
        "body": "",
        "status": 200,
        "response": "<!DOCTYPE html>\n<!--[if lt IE 7]><html class=\"lt-ie9 lt-ie8 lt-ie7\" lang=\"en\" dir=\"ltr\"><![endif]-->\n<!--[if IE 7]><html class=\"lt-ie9 lt-ie8\" lang=\"en\" dir=\"ltr\"><![endif]-->\n<!--[if IE 8]><html class=\"lt-ie9\" lang=\"en\" dir=\"ltr\"><![endif]-->\n<!--[if gt IE 8]><!--><html lang=\"en\" dir=\"ltr\" prefix=\"content: http://purl.org/rss/1.0/modules/content/ dc: http://purl.org/dc/terms/ foaf: http://xmlns.com/foaf/0.1/ og: http://ogp.me/ns# rdfs: http://www.w3.org/2000/01/rdf-schema# sioc: http://rdfs.org/sioc/ns# sioct: http://rdfs.org/sioc/types# skos: http://www.w3.org/2004/02/skos/core# xsd: http://www.w3.org/2001/XMLSchema# schema: http://schema.org/\"><!--<![endif]-->\n<head>\n<meta charset=\"utf-8\" />\n<meta name=\"description\" content=\"Alternative and radical events in Zurich : music/concert\" />\n<link rel=\"shortcut icon\" href=\"https://radar.squat.net/profiles/radar/themes/at_radar/favicon.ico\" type=\"image/vnd.microsoft.icon\" />\n<meta name=\"viewport\" content=\"width=device-width, initial-scale=1.0, user-scalable=yes\" />\n<meta name=\"MobileOptimized\" content=\"width\" />\n<meta name=\"HandheldFriendly\" content=\"true\" />\n<meta name=\"apple-mobile-web-app-capable\" content=\"yes\" />\n<title>Events: music/concert, Zurich | radar.squat.net</title>\n<link type=\"text/css\" rel=\"stylesheet\" href=\"https://radar.squat.net/sites/default/files/css/css_xE-rWrJf-fncB6ztZfd2huxqgxu4WO-qwma6Xer30m4.css\" media=\"all\" />\n<link type=\"text/css\" rel=\"stylesheet\" href=\"https://radar.squat.net/sites/default/files/css/css_liHQCKu5l5AgqoDoG6f9xEjs7k2cLKM2wLm_cEWgGiM.css\" media=\"all\" />\n<link type=\"text/css\" rel=\"stylesheet\" href=\"https://radar.squat.net/sites/default/files/css/css_0bRQeMSkYUt_QtavauMjjJHXPVxnVo-aQSy_n-cD_1s.css\" media=\"all\" />\n<link type=\"text/css\" rel=\"stylesheet\" href=\"https://radar.squat.net/sites/default/files/css/css_D3a3nFx_5LVEeTvGRjwn9UbxNL-dp-QzgR2IxqezNY0.css\" media=\"screen\" />\n<link type=\"text/css\" rel=\"stylesheet\" href=\"https://radar.squat.net/sites/default/files/css/css_PIyOxL_GFlYfRxHZw32_f_5joWm9tTbFt2sjG6HEmuk.css\" media=\"only screen\" />\n\n<!--[if lt IE 9]>\n<link type=\"text/css\" rel=\"stylesheet\" href=\"https://radar.squat.net/sites/default/files/css/css_OusxmJgYtVKdIA5qwl9xzyyrqUdKtVlBISXBiZZOmKw.css\" media=\"screen\" />\n<![endif]-->\n<script type=\"text/javascript\" src=\"https://radar.squat.net/profiles/radar/modules/contrib/jquery_update/replace/jquery/1.10/jquery.min.js?v=1.10.2\"></script>\n<script type=\"text/javascript\" src=\"https://radar.squat.net/misc/jquery-extend-3.4.0.js?v=1.10.2\"></script>\n<script type=\"text/javascript\" src=\"https://radar.squat.net/misc/jquery.once.js?v=1.2\"></script>\n<script type=\"text/javascript\" src=\"https://radar.squat.net/misc/drupal.js?q8tl7d\"></script>\n<script type=\"text/javascript\" src=\"https://radar.squat.net/profiles/radar/modules/contrib/better_exposed_filters/better_exposed_filters.js?q8tl7d\"></script>\n<script type=\"text/javascript\" src=\"https://radar.squat.net/profiles/radar/modules/contrib/facetapi/facetapi.js?q8tl7d\"></script>\n<script type=\"text/javascript\" src=\"https://radar.squat.net/profiles/radar/modules/contrib/lang_dropdown/lang_dropdown.js?q8tl7d\"></script>\n<script type=\"text/javascript\">\n<!--//--><![CDATA[//><!--\njQuery.extend(Drupal.settings, {\"basePath\":\"\\/\",\"pathPrefix\":\"en\\/\",\"ajaxPageState\":{\"theme\":\"at_radar\",\"theme_token\":\"yhCGmVoI3J65CZNSpHWFrhtTtL66JpFNYPSha4hmmLc\",\"js\":{\"profiles\\/radar\\/modules\\/contrib\\/jquery_update\\/replace\\/jquery\\/1.10\\/jquery.min.js\":1,\"misc\\/jquery-extend-3.4.0.js\":1,\"misc\\/jquery.once.js\":1,\"misc\\/drupal.js\":1,\"profiles\\/radar\\/modules\\/contrib\\/better_exposed_filters\\/better_exposed_filters.js\":1,\"profiles\\/radar\\/modules\\/contrib\\/facetapi\\/facetapi.js\":1,\"profiles\\/radar\\/modules\\/contrib\\/lang_dropdown\\/lang_dropdown.js\":1},\"css\":{\"modules\\/system\\/system.base.css\":1,\"modules\\/system\\/system.menus.css\":1,\"modules\\/system\\/system.messages.css\":1,\"modules\\/system\\/system.theme.css\":1,\"modules\\/aggregator\\/aggregator.css\":1,\"profiles\\/radar\\/modules\\/contrib\\/date\\/date_api\\/date.css\":1,\"profiles\\/radar\\/modules\\/contrib\\/date\\/date_popup\\/themes\\/datepicker.1.7.css\":1,\"profiles\\/radar\\/modules\\/contrib\\/date\\/date_repeat_field\\/date_repeat_field.css\":1,\"modules\\/field\\/theme\\/field.css\":1,\"profiles\\/radar\\/modules\\/contrib\\/logintoboggan\\/logintoboggan.css\":1,\"modules\\/node\\/node.css\":1,\"profiles\\/radar\\/modules\\/radar\\/radar_socialmedia\\/radar_socialmedia.css\":1,\"modules\\/user\\/user.css\":1,\"profiles\\/radar\\/modules\\/contrib\\/date_repeat_entity\\/date_repeat_entity.css\":1,\"profiles\\/radar\\/modules\\/contrib\\/views\\/css\\/views.css\":1,\"profiles\\/radar\\/modules\\/contrib\\/ctools\\/css\\/ctools.css\":1,\"profiles\\/radar\\/modules\\/contrib\\/panels\\/css\\/panels.css\":1,\"profiles\\/radar\\/modules\\/contrib\\/facetapi\\/facetapi.css\":1,\"profiles\\/radar\\/modules\\/contrib\\/lang_dropdown\\/lang_dropdown.css\":1,\"profiles\\/radar\\/themes\\/adaptivetheme\\/at_core\\/css\\/at.layout.css\":1,\"profiles\\/radar\\/themes\\/at_radar\\/css\\/global.base.css\":1,\"profiles\\/radar\\/themes\\/at_radar\\/css\\/global.styles.css\":1,\"public:\\/\\/adaptivetheme\\/at_radar_files\\/at_radar.responsive.layout.css\":1,\"public:\\/\\/adaptivetheme\\/at_radar_files\\/at_radar.responsive.styles.css\":1,\"public:\\/\\/adaptivetheme\\/at_radar_files\\/at_radar.lt-ie9.layout.css\":1}},\"better_exposed_filters\":{\"datepicker\":false,\"slider\":false,\"settings\":[],\"autosubmit\":false,\"views\":{\"radar_event_search\":{\"displays\":{\"panel_pane_1\":{\"filters\":{\"fulltext\":{\"required\":false}}}}}}},\"urlIsAjaxTrusted\":{\"\\/en\\/events\\/category\\/music-concert\\/city\\/Zurich\":true},\"facetapi\":{\"facets\":[{\"limit\":20,\"id\":\"facetapi-facet-search-apievents-block-field-offlinefield-addresspostal-code\",\"searcher\":\"search_api@events\",\"realmName\":\"block\",\"facetName\":\"field_offline:field_address:postal_code\",\"queryType\":null,\"widget\":\"facetapi_links\",\"showMoreText\":\"Show more\",\"showFewerText\":\"Show fewer\"},{\"limit\":\"20\",\"id\":\"facetapi-facet-search-apievents-block-field-offlinefield-addresslocality\",\"searcher\":\"search_api@events\",\"realmName\":\"block\",\"facetName\":\"field_offline:field_address:locality\",\"queryType\":null,\"widget\":\"facetapi_checkbox_links\",\"showMoreText\":\"Show more\",\"showFewerText\":\"Show fewer\",\"makeCheckboxes\":1},{\"limit\":\"20\",\"id\":\"facetapi-facet-search-apievents-block-field-offlinefield-addresscountry\",\"searcher\":\"search_api@events\",\"realmName\":\"block\",\"facetName\":\"field_offline:field_address:country\",\"queryType\":null,\"widget\":\"facetapi_checkbox_links\",\"showMoreText\":\"Show more\",\"showFewerText\":\"Show fewer\",\"makeCheckboxes\":1},{\"limit\":\"20\",\"id\":\"facetapi-facet-search-apievents-block-search-api-aggregation-1\",\"searcher\":\"search_api@events\",\"realmName\":\"block\",\"facetName\":\"search_api_aggregation_1\",\"queryType\":\"date\",\"widget\":\"facetapi_checkbox_links\",\"showMoreText\":\"Show more\",\"showFewerText\":\"Show fewer\",\"makeCheckboxes\":1},{\"limit\":\"20\",\"id\":\"facetapi-facet-search-apievents-block-field-callout\",\"searcher\":\"search_api@events\",\"realmName\":\"block\",\"facetName\":\"field_callout\",\"queryType\":null,\"widget\":\"facetapi_checkbox_links\",\"showMoreText\":\"Show more\",\"showFewerText\":\"Show fewer\",\"makeCheckboxes\":1},{\"limit\":\"20\",\"id\":\"facetapi-facet-search-apievents-block-field-price-category\",\"searcher\":\"search_api@events\",\"realmName\":\"block\",\"facetName\":\"field_price_category\",\"queryType\":null,\"widget\":\"facetapi_checkbox_links\",\"showMoreText\":\"Show more\",\"showFewerText\":\"Show fewer\",\"makeCheckboxes\":1},{\"limit\":\"20\",\"id\":\"facetapi-facet-search-apievents-block-field-topic\",\"searcher\":\"search_api@events\",\"realmName\":\"block\",\"facetName\":\"field_topic\",\"queryType\":null,\"widget\":\"facetapi_checkbox_links\",\"showMoreText\":\"Show more\",\"showFewerText\":\"Show fewer\",\"makeCheckboxes\":1},{\"limit\":\"20\",\"id\":\"facetapi-facet-search-apievents-block-og-group-ref\",\"searcher\":\"search_api@events\",\"realmName\":\"block\",\"facetName\":\"og_group_ref\",\"queryType\":null,\"widget\":\"facetapi_checkbox_links\",\"showMoreText\":\"Show more\",\"showFewerText\":\"Show fewer\",\"makeCheckboxes\":1},{\"limit\":\"20\",\"id\":\"facetapi-facet-search-apievents-block-field-category\",\"searcher\":\"search_api@events\",\"realmName\":\"block\",\"facetName\":\"field_category\",\"queryType\":null,\"widget\":\"facetapi_checkbox_links\",\"showMoreText\":\"Show more\",\"showFewerText\":\"Show fewer\",\"makeCheckboxes\":1},{\"limit\":20,\"id\":\"facetapi-facet-search-apievents-block-field-offlinefield-maplatlon\",\"searcher\":\"search_api@events\",\"realmName\":\"block\",\"facetName\":\"field_offline:field_map:latlon\",\"queryType\":null,\"widget\":\"facetapi_links\",\"showMoreText\":\"Show more\",\"showFewerText\":\"Show fewer\"}]},\"adaptivetheme\":{\"at_radar\":{\"layout_settings\":{\"bigscreen\":\"three-col-grail\",\"tablet_landscape\":\"three-col-grail\",\"tablet_portrait\":\"one-col-vert\",\"smalltouch_landscape\":\"one-col-vert\",\"smalltouch_portrait\":\"one-col-stack\"},\"media_query_settings\":{\"bigscreen\":\"only screen and (min-width:1025px)\",\"tablet_landscape\":\"only screen and (min-width:769px) and (max-width:1024px)\",\"tablet_portrait\":\"only screen and (min-width:581px) and (max-width:768px)\",\"smalltouch_landscape\":\"only screen and (min-width:321px) and (max-width:580px)\",\"smalltouch_portrait\":\"only screen and (max-width:320px)\"}}}});\n//--><!]]>\n</script>\n<!--[if lt IE 9]>\n<script src=\"https://radar.squat.net/profiles/radar/themes/adaptivetheme/at_core/scripts/html5.js?q8tl7d\"></script>\n<![endif]-->\n</head>\n<body class=\"html not-front not-logged-in no-sidebars page-events page-events-category page-events-category-music-concert page-events-category-music-concert-city page-events-category-music-concert-city-zurich i18n-en atr-7.x-3.x atv-7.x-3.2 lang-en site-name-radarsquatnet section-events page-panels\">\n  <div id=\"skip-link\" class=\"nocontent\">\n    <a href=\"#main-content\" class=\"element-invisible element-focusable\">Skip to main content</a>\n  </div>\n    <div id=\"page-wrapper\">\n  <div id=\"page\" class=\"container page\">\n\n    <!-- !Leaderboard Region -->\n    \n    <header id=\"header\" class=\"clearfix\" role=\"banner\">\n\n              <!-- !Branding -->\n        <div id=\"branding\" class=\"branding-elements clearfix\">\n\n                      <div id=\"logo\">\n              <a href=\"/\">｟(･)｠</a>            </div>\n          \n                      <!-- !Site name and Slogan -->\n            <div class=\"h-group\" id=\"name-and-slogan\">\n\n                              <h1 id=\"site-name\"><a href=\"/en\" title=\"Home page\">radar.squat.net</a></h1>\n              \n              \n            </div>\n          \n        </div>\n      \n      <!-- !Header Region -->\n      <div class=\"region region-header\"><div class=\"region-inner clearfix\"><div id=\"block-lang-dropdown-language\" class=\"block block-lang-dropdown no-title odd first last block-count-1 block-region-header block-language\" ><div class=\"block-inner clearfix\">  \n  \n  <div class=\"block-content content\"><form class=\"lang_dropdown_form language\" id=\"lang_dropdown_form_language\" action=\"/en/events/category/music-concert/city/Zurich\" method=\"post\" accept-charset=\"UTF-8\"><div><div class=\"form-item form-type-select form-item-lang-dropdown-select\">\n <select style=\"width:165px\" class=\"lang-dropdown-select-element form-select\" id=\"lang-dropdown-select-language\" name=\"lang_dropdown_select\"><option value=\"en\" selected=\"selected\">English</option><option value=\"de\">Deutsch</option><option value=\"es\">Español</option><option value=\"fr\">Français</option><option value=\"ar\">العربية</option><option value=\"ca\">Català</option><option value=\"cs\">Čeština</option><option value=\"eu\">Euskera</option><option value=\"el\">Ελληνικά</option><option value=\"eo\">Esperanto</option><option value=\"it\">Italiano</option><option value=\"ku\">Kurdî</option><option value=\"hu\">Magyar</option><option value=\"nl\">Nederlands</option><option value=\"nn\">Nynorsk</option><option value=\"pl\">Polski</option><option value=\"pt-br\">Português</option><option value=\"ru\">Русский</option><option value=\"sh\">Serbo-Croatian</option><option value=\"sk\">Slovenčina</option><option value=\"sl\">Slovenščina</option><option value=\"sv\">Svenska</option><option value=\"tr\">Türkçe</option></select>\n</div>\n<input type=\"hidden\" name=\"en\" value=\"/en/events/category/music-concert/city/Zurich\" />\n<input type=\"hidden\" name=\"de\" value=\"/de/events/category/music-concert/city/Zurich\" />\n<input type=\"hidden\" name=\"es\" value=\"/es/events/category/music-concert/city/Zurich\" />\n<input type=\"hidden\" name=\"fr\" value=\"/fr/events/category/music-concert/city/Zurich\" />\n<input type=\"hidden\" name=\"ar\" value=\"/ar/events/category/music-concert/city/Zurich\" />\n<input type=\"hidden\" name=\"ca\" value=\"/ca/events/category/music-concert/city/Zurich\" />\n<input type=\"hidden\" name=\"cs\" value=\"/cs/events/category/music-concert/city/Zurich\" />\n<input type=\"hidden\" name=\"eu\" value=\"/eu/events/category/music-concert/city/Zurich\" />\n<input type=\"hidden\" name=\"el\" value=\"/el/events/category/music-concert/city/Zurich\" />\n<input type=\"hidden\" name=\"eo\" value=\"/eo/events/category/music-concert/city/Zurich\" />\n<input type=\"hidden\" name=\"it\" value=\"/it/events/category/music-concert/city/Zurich\" />\n<input type=\"hidden\" name=\"ku\" value=\"/ku/events/category/music-concert/city/Zurich\" />\n<input type=\"hidden\" name=\"hu\" value=\"/hu/events/category/music-concert/city/Zurich\" />\n<input type=\"hidden\" name=\"nl\" value=\"/nl/events/category/music-concert/city/Zurich\" />\n<input type=\"hidden\" name=\"nn\" value=\"/nn/events/category/music-concert/city/Zurich\" />\n<input type=\"hidden\" name=\"pl\" value=\"/pl/events/category/music-concert/city/Zurich\" />\n<input type=\"hidden\" name=\"pt-br\" value=\"/pt-br/events/category/music-concert/city/Zurich\" />\n<input type=\"hidden\" name=\"ru\" value=\"/ru/events/category/music-concert/city/Zurich\" />\n<input type=\"hidden\" name=\"sh\" value=\"/sh/events/category/music-concert/city/Zurich\" />\n<input type=\"hidden\" name=\"sk\" value=\"/sk/events/category/music-concert/city/Zurich\" />\n<input type=\"hidden\" name=\"sl\" value=\"/sl/events/category/music-concert/city/Zurich\" />\n<input type=\"hidden\" name=\"sv\" value=\"/sv/events/category/music-concert/city/Zurich\" />\n<input type=\"hidden\" name=\"tr\" value=\"/tr/events/category/music-concert/city/Zurich\" />\n<noscript><div>\n<input type=\"submit\" id=\"edit-submit\" name=\"op\" value=\"Go\" class=\"form-submit\" />\n</div></noscript><input type=\"hidden\" name=\"form_build_id\" value=\"form-37b7bBrT9Ppc586k1Qb08KQcK5ZM9PIuVk0J6F0g2P4\" />\n<input type=\"hidden\" name=\"form_id\" value=\"lang_dropdown_form\" />\n</div></form></div>\n  </div></div></div></div>        <div id=\"secondary-menu-bar\" class=\"nav clearfix\"><nav  class=\"secondary-menu-wrapper menu-wrapper clearfix\" role=\"navigation\" aria-labelledby=\"secondary-menu\"><h2 class=\"element-invisible\" id=\"secondary-menu\">Secondary menu</h2><ul class=\"menu secondary-menu clearfix\"><li class=\"menu-780 first\"><a href=\"/en/user/login\" title=\"\">Login</a></li><li class=\"menu-1098\"><a href=\"/en/how-to\" title=\"\">How to...</a></li><li class=\"menu-913\"><a href=\"/en/groups\" title=\"\">Groups</a></li><li class=\"menu-914 active-trail last\"><a href=\"/en/events\" title=\"\" class=\"active-trail active\">Events</a></li></ul></nav></div>\n    </header>\n\n    <!-- !Navigation -->\n    \n    <!-- !Breadcrumbs -->\n    \n    <!-- !Messages and Help -->\n        \n    <!-- !Secondary Content Region -->\n    \n    <div id=\"columns\" class=\"columns clearfix\">\n      <main id=\"content-column\" class=\"content-column\" role=\"main\">\n        <div class=\"content-inner\">\n\n          <!-- !Highlighted region -->\n          \n          <section id=\"main-content\">\n\n            \n            <!-- !Main Content Header -->\n                          <header id=\"main-content-header\" class=\"clearfix\">\n\n                                  <h1 id=\"page-title\">\n                    Events: music/concert, Zurich                  </h1>\n                \n                \n              </header>\n            \n            <!-- !Main Content -->\n                          <div id=\"content\" class=\"region\">\n                <div id=\"block-system-main\" class=\"block block-system no-title odd first last block-count-2 block-region-content block-main\" >  \n  \n  <div class=\"two-66-33 at-panel panel-display clearfix\" >\n    <div class=\"region region-two-66-33-first\">\n    <div class=\"region-inner clearfix\">\n      <div class=\"panel-pane pane-block pane-views-33c7c5d0337e1ef601ce093f32f7d038 views-exposed-filter no-title block\">\n  <div class=\"block-inner clearfix\">\n    \n            \n    \n    <div class=\"block-content\">\n      <form action=\"/en/events/category/music-concert/city/Zurich\" method=\"get\" id=\"views-exposed-form-radar-event-search-panel-pane-1\" accept-charset=\"UTF-8\"><div><div class=\"views-exposed-form\">\n  <div class=\"views-exposed-widgets clearfix\">\n          <div id=\"edit-fulltext-wrapper\" class=\"views-exposed-widget views-widget-filter-search_api_views_fulltext\">\n                  <label for=\"edit-fulltext\">\n            Search for an event          </label>\n                        <div class=\"views-widget\">\n          <div class=\"form-item form-type-textfield form-item-fulltext\">\n <input type=\"text\" id=\"edit-fulltext\" name=\"fulltext\" value=\"\" size=\"30\" maxlength=\"128\" class=\"form-text\" />\n</div>\n        </div>\n              </div>\n                    <div class=\"views-exposed-widget views-submit-button\">\n      <input type=\"submit\" id=\"edit-submit-radar-event-search\" name=\"\" value=\"Search\" class=\"form-submit\" />    </div>\n          <div class=\"views-exposed-widget views-reset-button\">\n        <input type=\"submit\" id=\"edit-reset\" name=\"op\" value=\"Reset\" class=\"form-submit\" />      </div>\n      </div>\n</div>\n</div></form>    </div>\n\n    \n    \n  </div>\n</div>\n<div class=\"panel-separator\"></div><div class=\"panel-pane pane-views-panes pane-radar-event-search-panel-pane-1 no-title block\">\n  <div class=\"block-inner clearfix\">\n    \n            \n    \n    <div class=\"block-content\">\n      <div class=\"view view-radar-event-search view-id-radar_event_search view-display-id-panel_pane_1 view-dom-id-618bb3836ae7b9e726a2b9f804e70260\">\n        \n  \n  \n      <div class=\"view-content\">\n        <h3><div class=\"date\">Saturday, 6 June</div></h3>\n  <article vocab=\"http://schema.org/\" typeof=\"Event\"  class=\"results confirmed\">\n      \n          <h4 class=\"event-list-event-title\" property=\"schema:name\"><a href=\"https://radar.squat.net/en/node/363983\" property=\"url\">PAUSE</a></h4><span class=\"group\"> ~ <span property=\"schema:organizer\" typeof=\"Organization\"><a href=\"/en/node/8525\" property=\"schema:url\"><span property=\"schema:name\">Konzert Raum Koch Areal</span></a></span></span>    \n          <div class=\"grey\" property=\"location\" typeof=\"Place\"><span property=\"name\">Koch Areal</span>, <span property=\"address\" typeof=\"PostalAddress\"><span property=\"streetAddress\">Rautistrasse</span>, <span property=\"addressLocality\">Zürich</span></span></div>    \n          <span class=\"date-display-range\"><span class=\"date-display-start\" property=\"schema:startDate\" datatype=\"xsd:dateTime\" content=\"2020-04-30T23:55:00+02:00\">Thu, 30 Apr - 23:55</span> to <span class=\"date-display-end\" property=\"schema:endDate\" datatype=\"xsd:dateTime\" content=\"2020-06-08T23:55:00+02:00\">Mon, 08 Jun - 23:55</span></span>    \n           — bar/cafe / book shop/info shop/library / discussion/presentation / exhibition / film / food / meeting / music/concert / party / theater    </article>\n  <h3><div class=\"date\">Monday, 8 June</div></h3>\n  <article vocab=\"http://schema.org/\" typeof=\"Event\"  class=\"results confirmed\">\n      \n          <h4 class=\"event-list-event-title\" property=\"schema:name\"><a href=\"https://radar.squat.net/en/node/343975\" property=\"url\">BOSCHBAR:: </a></h4><span class=\"group\"> ~ <span property=\"schema:organizer\" typeof=\"Organization\"><a href=\"/en/node/7323\" property=\"schema:url\"><span property=\"schema:name\">BOSCHBAR</span></a></span></span>    \n          <div class=\"grey\" property=\"location\" typeof=\"Place\"><span property=\"name\">Provitreff</span>, <span property=\"address\" typeof=\"PostalAddress\"><span property=\"streetAddress\">Sihlquai 240</span>, <span property=\"addressLocality\">Zürich</span></span></div>    \n          <span class=\"date-display-single\" property=\"schema:startDate\" datatype=\"xsd:dateTime\" content=\"2020-06-08T22:00:00+02:00\">22:00</span>    \n           — bar/cafe / music/concert / party    \n           — Konzerte    </article>\n  <h3><div class=\"date\">Monday, 15 June</div></h3>\n  <article vocab=\"http://schema.org/\" typeof=\"Event\"  class=\"results confirmed\">\n      \n          <h4 class=\"event-list-event-title\" property=\"schema:name\"><a href=\"https://radar.squat.net/en/node/343976\" property=\"url\">BOSCHBAR:: </a></h4><span class=\"group\"> ~ <span property=\"schema:organizer\" typeof=\"Organization\"><a href=\"/en/node/7323\" property=\"schema:url\"><span property=\"schema:name\">BOSCHBAR</span></a></span></span>    \n          <div class=\"grey\" property=\"location\" typeof=\"Place\"><span property=\"name\">Provitreff</span>, <span property=\"address\" typeof=\"PostalAddress\"><span property=\"streetAddress\">Sihlquai 240</span>, <span property=\"addressLocality\">Zürich</span></span></div>    \n          <span class=\"date-display-single\" property=\"schema:startDate\" datatype=\"xsd:dateTime\" content=\"2020-06-15T22:00:00+02:00\">22:00</span>    \n           — bar/cafe / music/concert / party    \n           — Konzerte    </article>\n  <h3><div class=\"date\">Monday, 22 June</div></h3>\n  <article vocab=\"http://schema.org/\" typeof=\"Event\"  class=\"results confirmed\">\n      \n          <h4 class=\"event-list-event-title\" property=\"schema:name\"><a href=\"https://radar.squat.net/en/node/343977\" property=\"url\">BOSCHBAR:: </a></h4><span class=\"group\"> ~ <span property=\"schema:organizer\" typeof=\"Organization\"><a href=\"/en/node/7323\" property=\"schema:url\"><span property=\"schema:name\">BOSCHBAR</span></a></span></span>    \n          <div class=\"grey\" property=\"location\" typeof=\"Place\"><span property=\"name\">Provitreff</span>, <span property=\"address\" typeof=\"PostalAddress\"><span property=\"streetAddress\">Sihlquai 240</span>, <span property=\"addressLocality\">Zürich</span></span></div>    \n          <span class=\"date-display-single\" property=\"schema:startDate\" datatype=\"xsd:dateTime\" content=\"2020-06-22T22:00:00+02:00\">22:00</span>    \n           — bar/cafe / music/concert / party    \n           — Konzerte    </article>\n  <h3><div class=\"date\">Monday, 29 June</div></h3>\n  <article vocab=\"http://schema.org/\" typeof=\"Event\"  class=\"results confirmed\">\n      \n          <h4 class=\"event-list-event-title\" property=\"schema:name\"><a href=\"https://radar.squat.net/en/node/343978\" property=\"url\">BOSCHBAR:: </a></h4><span class=\"group\"> ~ <span property=\"schema:organizer\" typeof=\"Organization\"><a href=\"/en/node/7323\" property=\"schema:url\"><span property=\"schema:name\">BOSCHBAR</span></a></span></span>    \n          <div class=\"grey\" property=\"location\" typeof=\"Place\"><span property=\"name\">Provitreff</span>, <span property=\"address\" typeof=\"PostalAddress\"><span property=\"streetAddress\">Sihlquai 240</span>, <span property=\"addressLocality\">Zürich</span></span></div>    \n          <span class=\"date-display-single\" property=\"schema:startDate\" datatype=\"xsd:dateTime\" content=\"2020-06-29T22:00:00+02:00\">22:00</span>    \n           — bar/cafe / music/concert / party    \n           — Konzerte    </article>\n  <h3><div class=\"date\">Monday, 6 July</div></h3>\n  <article vocab=\"http://schema.org/\" typeof=\"Event\"  class=\"results confirmed\">\n      \n          <h4 class=\"event-list-event-title\" property=\"schema:name\"><a href=\"https://radar.squat.net/en/node/343979\" property=\"url\">BOSCHBAR:: </a></h4><span class=\"group\"> ~ <span property=\"schema:organizer\" typeof=\"Organization\"><a href=\"/en/node/7323\" property=\"schema:url\"><span property=\"schema:name\">BOSCHBAR</span></a></span></span>    \n          <div class=\"grey\" property=\"location\" typeof=\"Place\"><span property=\"name\">Provitreff</span>, <span property=\"address\" typeof=\"PostalAddress\"><span property=\"streetAddress\">Sihlquai 240</span>, <span property=\"addressLocality\">Zürich</span></span></div>    \n          <span class=\"date-display-single\" property=\"schema:startDate\" datatype=\"xsd:dateTime\" content=\"2020-07-06T22:00:00+02:00\">22:00</span>    \n           — bar/cafe / music/concert / party    \n           — Konzerte    </article>\n  <h3><div class=\"date\">Monday, 13 July</div></h3>\n  <article vocab=\"http://schema.org/\" typeof=\"Event\"  class=\"results confirmed\">\n      \n          <h4 class=\"event-list-event-title\" property=\"schema:name\"><a href=\"https://radar.squat.net/en/node/343980\" property=\"url\">BOSCHBAR:: Las Manos de Filippi &amp; Anarkia Tropikal &amp; DJ Old Monk</a></h4><span class=\"group\"> ~ <span property=\"schema:organizer\" typeof=\"Organization\"><a href=\"/en/node/7323\" property=\"schema:url\"><span property=\"schema:name\">BOSCHBAR</span></a></span></span>    \n          <div class=\"grey\" property=\"location\" typeof=\"Place\"><span property=\"name\">Provitreff</span>, <span property=\"address\" typeof=\"PostalAddress\"><span property=\"streetAddress\">Sihlquai 240</span>, <span property=\"addressLocality\">Zürich</span></span></div>    \n          <span class=\"date-display-single\" property=\"schema:startDate\" datatype=\"xsd:dateTime\" content=\"2020-07-13T22:00:00+02:00\">22:00</span>    \n           — bar/cafe / music/concert / party    \n           — Konzerte    </article>\n  <h3><div class=\"date\">Monday, 20 July</div></h3>\n  <article vocab=\"http://schema.org/\" typeof=\"Event\"  class=\"results confirmed\">\n      \n          <h4 class=\"event-list-event-title\" property=\"schema:name\"><a href=\"https://radar.squat.net/en/node/343981\" property=\"url\">BOSCHBAR:: </a></h4><span class=\"group\"> ~ <span property=\"schema:organizer\" typeof=\"Organization\"><a href=\"/en/node/7323\" property=\"schema:url\"><span property=\"schema:name\">BOSCHBAR</span></a></span></span>    \n          <div class=\"grey\" property=\"location\" typeof=\"Place\"><span property=\"name\">Provitreff</span>, <span property=\"address\" typeof=\"PostalAddress\"><span property=\"streetAddress\">Sihlquai 240</span>, <span property=\"addressLocality\">Zürich</span></span></div>    \n          <span class=\"date-display-single\" property=\"schema:startDate\" datatype=\"xsd:dateTime\" content=\"2020-07-20T22:00:00+02:00\">22:00</span>    \n           — bar/cafe / music/concert / party    \n           — Konzerte    </article>\n  <h3><div class=\"date\">Monday, 27 July</div></h3>\n  <article vocab=\"http://schema.org/\" typeof=\"Event\"  class=\"results confirmed\">\n      \n          <h4 class=\"event-list-event-title\" property=\"schema:name\"><a href=\"https://radar.squat.net/en/node/343982\" property=\"url\">BOSCHBAR:: </a></h4><span class=\"group\"> ~ <span property=\"schema:organizer\" typeof=\"Organization\"><a href=\"/en/node/7323\" property=\"schema:url\"><span property=\"schema:name\">BOSCHBAR</span></a></span></span>    \n          <div class=\"grey\" property=\"location\" typeof=\"Place\"><span property=\"name\">Provitreff</span>, <span property=\"address\" typeof=\"PostalAddress\"><span property=\"streetAddress\">Sihlquai 240</span>, <span property=\"addressLocality\">Zürich</span></span></div>    \n          <span class=\"date-display-single\" property=\"schema:startDate\" datatype=\"xsd:dateTime\" content=\"2020-07-27T22:00:00+02:00\">22:00</span>    \n           — bar/cafe / music/concert / party    \n           — Konzerte    </article>\n    </div>\n  \n  \n  \n  \n  \n  \n</div>    </div>\n\n    \n    \n  </div>\n</div>\n    </div>\n  </div>\n  <div class=\"region region-two-66-33-second\">\n    <div class=\"region-inner clearfix\">\n      <div class=\"panel-pane pane-custom pane-1 facet-introduction no-title block\">\n  <div class=\"block-inner clearfix\">\n    \n            \n    \n    <div class=\"block-content\">\n      <p>Filter by location, group, type, topic and/or date</p>\n    </div>\n\n    \n    \n  </div>\n</div>\n<div class=\"panel-separator\"></div><section class=\"panel-pane pane-block pane-facetapi-4zspuyvolph50nrkwo1amyta8i4gcgop facet block\">\n  <div class=\"block-inner clearfix\">\n    \n              <h2  class=\"pane-title block-title\">Country</h2>        \n    \n    <div class=\"block-content\">\n      <div class=\"item-list item-list-facetapi-facetapi-checkbox-links\"><ul class=\"facetapi-facetapi-checkbox-links facetapi-facet-field-offlinefield-addresscountry\" id=\"facetapi-facet-search-apievents-block-field-offlinefield-addresscountry\"><li class=\"leaf even first last\"><a href=\"/en/user/login?destination=events/category/music-concert/city/Zurich/country/CH&amp;login_reason=facets\" class=\"facetapi-checkbox facetapi-inactive\" id=\"facetapi-link--4\">Switzerland (9)<span class=\"element-invisible\"> Apply Switzerland filter </span></a></li></ul></div>    </div>\n\n    \n    \n  </div>\n</section>\n<div class=\"panel-separator\"></div><section class=\"panel-pane pane-block pane-facetapi-vjjfmfywn1lppk57itmlwb0yrxvslljb facet block\">\n  <div class=\"block-inner clearfix\">\n    \n              <h2  class=\"pane-title block-title\">City</h2>        \n    \n    <div class=\"block-content\">\n      <div class=\"item-list item-list-facetapi-facetapi-checkbox-links\"><ul class=\"facetapi-facetapi-checkbox-links facetapi-facet-field-offlinefield-addresslocality\" id=\"facetapi-facet-search-apievents-block-field-offlinefield-addresslocality\"><li class=\"leaf even first last\"><a href=\"/en/events/category/music-concert\" class=\"facetapi-checkbox facetapi-active\" id=\"facetapi-link--3\">(-) <span class=\"element-invisible\"> Remove Zurich filter </span></a>Zurich</li></ul></div>    </div>\n\n    \n    \n  </div>\n</section>\n<div class=\"panel-separator\"></div><section class=\"panel-pane pane-block pane-facetapi-u73slzu6bmz5qbotieu1l3kmioneoxpq facet block\">\n  <div class=\"block-inner clearfix\">\n    \n              <h2  class=\"pane-title block-title\">Group</h2>        \n    \n    <div class=\"block-content\">\n      <div class=\"item-list item-list-facetapi-facetapi-checkbox-links\"><ul class=\"facetapi-facetapi-checkbox-links facetapi-facet-og-group-ref\" id=\"facetapi-facet-search-apievents-block-og-group-ref\"><li class=\"leaf even first\"><a href=\"/en/user/login?destination=events/category/music-concert/city/Zurich/group/7323&amp;login_reason=facets\" rel=\"nofollow\" class=\"facetapi-checkbox facetapi-inactive\" id=\"facetapi-link--10\">BOSCHBAR (8)<span class=\"element-invisible\"> Apply BOSCHBAR filter </span></a></li><li class=\"leaf odd last\"><a href=\"/en/user/login?destination=events/category/music-concert/city/Zurich/group/8525&amp;login_reason=facets\" rel=\"nofollow\" class=\"facetapi-checkbox facetapi-inactive\" id=\"facetapi-link--11\">Konzert Raum Koch Areal (1)<span class=\"element-invisible\"> Apply Konzert Raum Koch Areal filter </span></a></li></ul></div>    </div>\n\n    \n    \n  </div>\n</section>\n<div class=\"panel-separator\"></div><section class=\"panel-pane pane-block pane-facetapi-yx5dryogm0fdf7rf6mfjlycldyz3qgqb facet block\">\n  <div class=\"block-inner clearfix\">\n    \n              <h2  class=\"pane-title block-title\">Category</h2>        \n    \n    <div class=\"block-content\">\n      <div class=\"item-list item-list-facetapi-facetapi-checkbox-links\"><ul class=\"facetapi-facetapi-checkbox-links facetapi-facet-field-category\" id=\"facetapi-facet-search-apievents-block-field-category\"><li class=\"leaf even first\"><a href=\"/en/events/city/Zurich\" class=\"facetapi-checkbox facetapi-active\" id=\"facetapi-link--12\">(-) <span class=\"element-invisible\"> Remove music/concert filter </span></a>music/concert</li><li class=\"leaf odd\"><a href=\"/en/user/login?destination=events/category/bar-cafe/category/music-concert/city/Zurich&amp;login_reason=facets\" class=\"facetapi-checkbox facetapi-inactive\" id=\"facetapi-link--13\">bar/cafe (9)<span class=\"element-invisible\"> Apply bar/cafe filter </span></a></li><li class=\"leaf even\"><a href=\"/en/user/login?destination=events/category/music-concert/category/book-shop-info-shop-library/city/Zurich&amp;login_reason=facets\" class=\"facetapi-checkbox facetapi-inactive\" id=\"facetapi-link--14\">book shop/info shop/library (1)<span class=\"element-invisible\"> Apply book shop/info shop/library filter </span></a></li><li class=\"leaf odd\"><a href=\"/en/user/login?destination=events/category/discussion-presentation/category/music-concert/city/Zurich&amp;login_reason=facets\" class=\"facetapi-checkbox facetapi-inactive\" id=\"facetapi-link--15\">discussion/presentation (1)<span class=\"element-invisible\"> Apply discussion/presentation filter </span></a></li><li class=\"leaf even\"><a href=\"/en/user/login?destination=events/category/music-concert/category/exhibition/city/Zurich&amp;login_reason=facets\" class=\"facetapi-checkbox facetapi-inactive\" id=\"facetapi-link--16\">exhibition (1)<span class=\"element-invisible\"> Apply exhibition filter </span></a></li><li class=\"leaf odd\"><a href=\"/en/user/login?destination=events/category/film/category/music-concert/city/Zurich&amp;login_reason=facets\" class=\"facetapi-checkbox facetapi-inactive\" id=\"facetapi-link--17\">film (1)<span class=\"element-invisible\"> Apply film filter </span></a></li><li class=\"leaf even\"><a href=\"/en/user/login?destination=events/category/food/category/music-concert/city/Zurich&amp;login_reason=facets\" class=\"facetapi-checkbox facetapi-inactive\" id=\"facetapi-link--18\">food (1)<span class=\"element-invisible\"> Apply food filter </span></a></li><li class=\"leaf odd\"><a href=\"/en/user/login?destination=events/category/music-concert/category/meeting/city/Zurich&amp;login_reason=facets\" class=\"facetapi-checkbox facetapi-inactive\" id=\"facetapi-link--19\">meeting (1)<span class=\"element-invisible\"> Apply meeting filter </span></a></li><li class=\"leaf even\"><a href=\"/en/user/login?destination=events/category/music-concert/category/party/city/Zurich&amp;login_reason=facets\" class=\"facetapi-checkbox facetapi-inactive\" id=\"facetapi-link--20\">party (9)<span class=\"element-invisible\"> Apply party filter </span></a></li><li class=\"leaf odd last\"><a href=\"/en/user/login?destination=events/category/music-concert/category/theater/city/Zurich&amp;login_reason=facets\" class=\"facetapi-checkbox facetapi-inactive\" id=\"facetapi-link--21\">theater (1)<span class=\"element-invisible\"> Apply theater filter </span></a></li></ul></div>    </div>\n\n    \n    \n  </div>\n</section>\n<div class=\"panel-separator\"></div><section class=\"panel-pane pane-block pane-facetapi-1lcc9xk4xuaiylm5cdymebcnmp5pa0a5 facet block\">\n  <div class=\"block-inner clearfix\">\n    \n              <h2  class=\"pane-title block-title\">Tag</h2>        \n    \n    <div class=\"block-content\">\n      <div class=\"item-list item-list-facetapi-facetapi-checkbox-links\"><ul class=\"facetapi-facetapi-checkbox-links facetapi-facet-field-topic\" id=\"facetapi-facet-search-apievents-block-field-topic\"><li class=\"leaf even first last\"><a href=\"/en/user/login?destination=events/category/music-concert/city/Zurich/tag/konzerte&amp;login_reason=facets\" rel=\"nofollow\" class=\"facetapi-checkbox facetapi-inactive\" id=\"facetapi-link--9\">Konzerte (8)<span class=\"element-invisible\"> Apply Konzerte filter </span></a></li></ul></div>    </div>\n\n    \n    \n  </div>\n</section>\n<div class=\"panel-separator\"></div><section class=\"panel-pane pane-block pane-facetapi-vh2nvmoyneun98jzhzsqpnev1u2lvbop facet block\">\n  <div class=\"block-inner clearfix\">\n    \n              <h2  class=\"pane-title block-title\">Price</h2>        \n    \n    <div class=\"block-content\">\n      <div class=\"item-list item-list-facetapi-facetapi-checkbox-links\"><ul class=\"facetapi-facetapi-checkbox-links facetapi-facet-field-price-category\" id=\"facetapi-facet-search-apievents-block-field-price-category\"><li class=\"leaf even first last\"><a href=\"/en/user/login?destination=events/category/music-concert/city/Zurich/price/free-121&amp;login_reason=facets\" rel=\"nofollow\" class=\"facetapi-checkbox facetapi-inactive\" id=\"facetapi-link--8\">free (1)<span class=\"element-invisible\"> Apply free filter </span></a></li></ul></div>    </div>\n\n    \n    \n  </div>\n</section>\n<div class=\"panel-separator\"></div><section class=\"panel-pane pane-block pane-facetapi-zpdbsr9ga0oeinzmxhzmx7dmveoujbkf facet block\">\n  <div class=\"block-inner clearfix\">\n    \n              <h2  class=\"pane-title block-title\">Date</h2>        \n    \n    <div class=\"block-content\">\n      <div class=\"item-list item-list-facetapi-facetapi-checkbox-links\"><ul class=\"facetapi-facetapi-checkbox-links facetapi-facet-search-api-aggregation-1\" id=\"facetapi-facet-search-apievents-block-search-api-aggregation-1\"><li class=\"leaf even first\"><a href=\"/en/user/login?destination=events/category/music-concert/city/Zurich/date/2020-04&amp;login_reason=facets\" rel=\"nofollow\" class=\"facetapi-checkbox facetapi-inactive\" id=\"facetapi-link--5\">April 2020 (1)<span class=\"element-invisible\"> Apply April 2020 filter </span></a></li><li class=\"leaf odd\"><a href=\"/en/user/login?destination=events/category/music-concert/city/Zurich/date/2020-06&amp;login_reason=facets\" rel=\"nofollow\" class=\"facetapi-checkbox facetapi-inactive\" id=\"facetapi-link--6\">June 2020 (4)<span class=\"element-invisible\"> Apply June 2020 filter </span></a></li><li class=\"leaf even last\"><a href=\"/en/user/login?destination=events/category/music-concert/city/Zurich/date/2020-07&amp;login_reason=facets\" rel=\"nofollow\" class=\"facetapi-checkbox facetapi-inactive\" id=\"facetapi-link--7\">July 2020 (4)<span class=\"element-invisible\"> Apply July 2020 filter </span></a></li></ul></div>    </div>\n\n    \n    \n  </div>\n</section>\n    </div>\n  </div>\n  </div>\n\n  </div>              </div>\n            \n            <!-- !Feed Icons -->\n            \n            \n          </section><!-- /end #main-content -->\n\n          <!-- !Content Aside Region-->\n          \n        </div><!-- /end .content-inner -->\n      </main><!-- /end #content-column -->\n\n      <!-- !Sidebar Regions -->\n            \n    </div><!-- /end #columns -->\n\n    <!-- !Tertiary Content Region -->\n    \n    <!-- !Footer -->\n          <footer id=\"footer\" class=\"clearfix\" role=\"contentinfo\">\n        <div id=\"primary-menu-bar\" class=\"nav clearfix\"><nav  class=\"primary-menu-wrapper menu-wrapper clearfix\" role=\"navigation\" aria-labelledby=\"primary-menu\"><h2 class=\"element-invisible\" id=\"primary-menu\">Main menu</h2><ul class=\"menu primary-menu clearfix\"><li class=\"menu-1081 first\"><a href=\"/en/how-to\" title=\"How does this all work?\">How to....</a></li><li class=\"menu-478\"><a href=\"/en/why-radar\">Why Radar?</a></li><li class=\"menu-781\"><a href=\"/en/translate\">Translate</a></li><li class=\"menu-480\"><a href=\"/en/api\">API</a></li><li class=\"menu-479\"><a href=\"/en/user/register\" title=\"Create a new user account, login or request a new password.\">Create account</a></li><li class=\"menu-1664\"><a href=\"/en/contact-us\">Contact us</a></li><li class=\"menu-1666\"><a href=\"/en/blog\" title=\"News from the development team\">Blog</a></li><li class=\"menu-1803 last\"><a href=\"http://3m2pgmhdsgrneurfbi5oxelzbytcgxaeajsmtxuijhen3l3asu3c5yad.onion/\" title=\"The &#039;onion&#039; address of the site. Will only work if you have access via Tor, for example with the &#039;Tor Browser&#039;.\">[via Tor]</a></li></ul></nav></div>        <div class=\"region region-footer\"><div class=\"region-inner clearfix\"><div id=\"block-system-powered-by\" class=\"block block-system no-title odd first last block-count-3 block-region-footer block-powered-by\"  role=\"complementary\"><div class=\"block-inner clearfix\">  \n  \n  <div class=\"block-content content\"><span>Run by the <a href=\"/en/user\">community</a>, <a href=\"https://git.codecoop.org/groups/radar\">built</a> with <a href=\"https://www.drupal.org/\">drupal</a>, hosted by <a href=\"https://squat.net/\">squat.net</a></span></div>\n  </div></div></div></div>              </footer>\n    \n  </div>\n</div>\n  </body>\n</html>\n",
        "rawHeaders": [
            "server",
            "nginx",
            "date",
            "sat, 06 jun 2020 16:05:23 gmt",
            "content-type",
            "text/html; charset=utf-8",
            "transfer-encoding",
            "chunked",
            "connection",
            "close",
            "x-drupal-cache",
            "miss",
            "x-content-type-options",
            "nosniff",
            "content-language",
            "en",
            "x-frame-options",
            "sameorigin",
            "cache-control",
            "public, max-age=300",
            "expires",
            "sun, 19 nov 1978 05:00:00 gmt",
            "vary",
            "cookie,accept-encoding",
            "etag",
            "\"1591459522-1\"",
            "last-modified",
            "sat, 06 jun 2020 16:05:22 gmt",
            "onion-location",
            "http://3m2pgmhdsgrneurfbi5oxelzbytcgxaeajsmtxuijhen3l3asu3c5yad.onion/index.php",
            "x-cache-status",
            "miss"
        ]
    }
]