// Jest Snapshot v1, https://goo.gl/fbAQLP

exports[`Renée renee-2022-11-23 1`] = `
[
  EventData {
    "description": "The Sugar Shake, DJ: Vincent Vega & Buddy Webster",
    "genres": [
      "garage",
      "beat",
      "rock’n’roll",
      "rhythm'n'blues",
    ],
    "links": [],
    "sourceUrl": "https://www.renee.ch",
    "time": 2022-11-24 23:00 (Europe/Zurich),
    "venueName": "Renée",
  },
  EventData {
    "description": "Fast, Konzert: Charley Rose | Fabio Gouvea | Kuba Dvorak | Florian Haas, DJ: Neevo & Dersu",
    "genres": [
      "jazz",
      "uptempo",
    ],
    "links": [],
    "sourceUrl": "https://www.renee.ch",
    "time": 2022-11-25 23:00 (Europe/Zurich),
    "venueName": "Renée",
  },
  EventData {
    "description": "Renée Culture Club, DJ: Féline & Elias 308",
    "genres": [
      "electronic house",
      "electro",
      "global",
      "cosmic",
    ],
    "links": [],
    "sourceUrl": "https://www.renee.ch",
    "time": 2022-11-26 23:00 (Europe/Zurich),
    "venueName": "Renée",
  },
  EventData {
    "description": "Live, Cinematic Zone Trip: lotto_brb_cybebe",
    "genres": [
      "ambient",
      "experimental",
      "live",
    ],
    "links": [],
    "sourceUrl": "https://www.renee.ch",
    "time": 2022-11-27 22:00 (Europe/Zurich),
    "venueName": "Renée",
  },
]
`;
