// Jest Snapshot v1, https://goo.gl/fbAQLP

exports[`Sääli Sääli-2019-10-21 1`] = `
[
  EventData {
    "description": "Smack–Bang: DJ B-Slapt, Pop, Soul, HipHop, Latin",
    "genres": [],
    "links": [],
    "sourceUrl": "https://www.goldenes-fass.ch/saali/",
    "time": 2019-10-04 22:00 (Europe/Zurich),
    "venueName": "Sääli",
  },
  EventData {
    "description": "Rauchy Rawhide Chicken: 10 DJs, 100’s of Vinyl Pearls, Early Soul, Rock n Roll, Boogie, Roots",
    "genres": [],
    "links": [],
    "sourceUrl": "https://www.goldenes-fass.ch/saali/",
    "time": 2019-10-05 22:00 (Europe/Zurich),
    "venueName": "Sääli",
  },
  EventData {
    "description": "Deep Diving Thursday: DJ Salz, Alternativ, Soul, Disco",
    "genres": [],
    "links": [],
    "sourceUrl": "https://www.goldenes-fass.ch/saali/",
    "time": 2019-10-10 22:00 (Europe/Zurich),
    "venueName": "Sääli",
  },
  EventData {
    "description": "Short Circuit: Lowpan & Guest, Disco",
    "genres": [],
    "links": [],
    "sourceUrl": "https://www.goldenes-fass.ch/saali/",
    "time": 2019-10-11 22:00 (Europe/Zurich),
    "venueName": "Sääli",
  },
  EventData {
    "description": "Guest Night: La Banana Senza Senso und DJ Terrapi, World, Funk, Disco, Oldschool",
    "genres": [],
    "links": [],
    "sourceUrl": "https://www.goldenes-fass.ch/saali/",
    "time": 2019-10-12 22:00 (Europe/Zurich),
    "venueName": "Sääli",
  },
  EventData {
    "description": "Soundklinik: Demotapes zum mithören",
    "genres": [],
    "links": [
      {
        "label": "Soundklinik",
        "url": "https://www.rfv.ch/magazin/news/2019/und-hier-ist-der-sound-zur-ersten-soundclinic-des-rfv-basel.html",
      },
    ],
    "sourceUrl": "https://www.goldenes-fass.ch/saali/",
    "time": 2019-10-17 19:00 (Europe/Zurich),
    "venueName": "Sääli",
  },
  EventData {
    "description": "Rumba BoxX: Jalliman & Rootsprov, Calypso, Rumba, Ska, Mento",
    "genres": [],
    "links": [
      {
        "label": "Rumba BoxX",
        "url": "https://de-de.facebook.com/rumbaboxx",
      },
    ],
    "sourceUrl": "https://www.goldenes-fass.ch/saali/",
    "time": 2019-10-18 22:00 (Europe/Zurich),
    "venueName": "Sääli",
  },
  EventData {
    "description": "Twister: DJ Tom Best & Rpm, Rock n Roll",
    "genres": [],
    "links": [
      {
        "label": "Twister",
        "url": "https://www.villigercigars.com/de-ch/produkt/special-cigars/villiger-original-krumme/",
      },
    ],
    "sourceUrl": "https://www.goldenes-fass.ch/saali/",
    "time": 2019-10-19 22:00 (Europe/Zurich),
    "venueName": "Sääli",
  },
  EventData {
    "description": "Deep Diving Thursday: Myrielle Mondieu, Elektronica, Alternative",
    "genres": [],
    "links": [],
    "sourceUrl": "https://www.goldenes-fass.ch/saali/",
    "time": 2019-10-24 22:00 (Europe/Zurich),
    "venueName": "Sääli",
  },
  EventData {
    "description": "Peaches & Prunes: Lowpan, Neevo, Truedat, Zwirbel, Disco, Stampf, Balearic",
    "genres": [],
    "links": [],
    "sourceUrl": "https://www.goldenes-fass.ch/saali/",
    "time": 2019-10-25 22:00 (Europe/Zurich),
    "venueName": "Sääli",
  },
  EventData {
    "description": "Sonido Resistencia: DJ Team Sonido & Guest, World, Latin, Afro",
    "genres": [],
    "links": [],
    "sourceUrl": "https://www.goldenes-fass.ch/saali/",
    "time": 2019-10-26 22:00 (Europe/Zurich),
    "venueName": "Sääli",
  },
  EventData {
    "description": "Deep Diving Thursday: Hunkeler Hunziker, Pop und so",
    "genres": [],
    "links": [],
    "sourceUrl": "https://www.goldenes-fass.ch/saali/",
    "time": 2019-10-31 22:00 (Europe/Zurich),
    "venueName": "Sääli",
  },
]
`;

exports[`Sääli Sääli-2019-10-29 1`] = `
[
  EventData {
    "description": "Deep Diving Thursday: Hunkeler Hunziker, Pop und so",
    "genres": [],
    "links": [],
    "sourceUrl": "https://www.goldenes-fass.ch/saali/",
    "time": 2019-10-31 22:00 (Europe/Zurich),
    "venueName": "Sääli",
  },
  EventData {
    "description": "Halloween Hop: DJ Rpm & Sonoflono, screaming n shocking rock n roll",
    "genres": [],
    "links": [],
    "sourceUrl": "https://www.goldenes-fass.ch/saali/",
    "time": 2019-11-01 22:00 (Europe/Zurich),
    "venueName": "Sääli",
  },
  EventData {
    "description": "Raunchy Rawhide Chicken: 10 DJs, 100’s of Vinyl Pearls, Early Soul, Rock n Roll, Boogie, Roots",
    "genres": [],
    "links": [],
    "sourceUrl": "https://www.goldenes-fass.ch/saali/",
    "time": 2019-11-02 22:00 (Europe/Zurich),
    "venueName": "Sääli",
  },
  EventData {
    "description": "Deep Diving Thursday: DJ Salz, Alternativ, Soul, Disco",
    "genres": [],
    "links": [],
    "sourceUrl": "https://www.goldenes-fass.ch/saali/",
    "time": 2019-11-07 22:00 (Europe/Zurich),
    "venueName": "Sääli",
  },
  EventData {
    "description": "Pop Bingo: DJ Psycho Jonas, Bingo und Hartdisko",
    "genres": [],
    "links": [],
    "sourceUrl": "https://www.goldenes-fass.ch/saali/",
    "time": 2019-11-08 22:00 (Europe/Zurich),
    "venueName": "Sääli",
  },
  EventData {
    "description": "BuchBasel 2019: Lottospeech: Thesaurus Rex, Shot Stories: Die Beizentour Iii, anschliessend: Villiger Chrumm, DJ Hunkeler Hunziker, Pop und so",
    "genres": [],
    "links": [
      {
        "label": "BuchBasel 2019",
        "url": "https://www.buchbasel.ch/programm/?date=2019-11-09&venue=47",
      },
    ],
    "sourceUrl": "https://www.goldenes-fass.ch/saali/",
    "time": 2019-11-09 20:00 (Europe/Zurich),
    "venueName": "Sääli",
  },
  EventData {
    "description": "Lesung: Tom Combo: anschliessend: Deep Diving Thursday, DJ Splash",
    "genres": [],
    "links": [],
    "sourceUrl": "https://www.goldenes-fass.ch/saali/",
    "time": 2019-11-14 20:00 (Europe/Zurich),
    "venueName": "Sääli",
  },
  EventData {
    "description": "Rumba BoxX: Jalliman & Rootsprov, Calypso, Rumba, Ska, Mento",
    "genres": [],
    "links": [],
    "sourceUrl": "https://www.goldenes-fass.ch/saali/",
    "time": 2019-11-15 22:00 (Europe/Zurich),
    "venueName": "Sääli",
  },
  EventData {
    "description": "Guest Night: Disco, RnB, Soul",
    "genres": [],
    "links": [],
    "sourceUrl": "https://www.goldenes-fass.ch/saali/",
    "time": 2019-11-16 22:00 (Europe/Zurich),
    "venueName": "Sääli",
  },
  EventData {
    "description": "Deep Diving Thursday: Mireille Mondieux",
    "genres": [],
    "links": [],
    "sourceUrl": "https://www.goldenes-fass.ch/saali/",
    "time": 2019-11-21 22:00 (Europe/Zurich),
    "venueName": "Sääli",
  },
  EventData {
    "description": "Cloak n Dagger Operation: John Eastwood, Dark n Bright 80’s",
    "genres": [],
    "links": [],
    "sourceUrl": "https://www.goldenes-fass.ch/saali/",
    "time": 2019-11-22 22:00 (Europe/Zurich),
    "venueName": "Sääli",
  },
  EventData {
    "description": "Sbb: SchallplattenfreundeBeiderBasel, Mireille Mondieux, Splash, Salz",
    "genres": [],
    "links": [],
    "sourceUrl": "https://www.goldenes-fass.ch/saali/",
    "time": 2019-11-23 22:00 (Europe/Zurich),
    "venueName": "Sääli",
  },
  EventData {
    "description": "Deep Diving Thursday",
    "genres": [],
    "links": [],
    "sourceUrl": "https://www.goldenes-fass.ch/saali/",
    "time": 2019-11-28 22:00 (Europe/Zurich),
    "venueName": "Sääli",
  },
  EventData {
    "description": "DJ Tiago, World",
    "genres": [],
    "links": [],
    "sourceUrl": "https://www.goldenes-fass.ch/saali/",
    "time": 2019-11-29 22:00 (Europe/Zurich),
    "venueName": "Sääli",
  },
  EventData {
    "description": "Peaches & Prunes: Lowpan, Neevo, Truedat, Zwirbel, Disco, Stampf, Balearic",
    "genres": [],
    "links": [],
    "sourceUrl": "https://www.goldenes-fass.ch/saali/",
    "time": 2019-11-30 22:00 (Europe/Zurich),
    "venueName": "Sääli",
  },
]
`;

exports[`Sääli Sääli-2019-12-24 1`] = `
[
  EventData {
    "description": "Deep Diving Thursday: Hunkeler & Hunziker, From New Wave to Reagge",
    "genres": [],
    "links": [],
    "sourceUrl": "https://www.goldenes-fass.ch/saali/",
    "time": 2019-12-12 22:00 (Europe/Zurich),
    "venueName": "Sääli",
  },
  EventData {
    "description": "Cloak n Dagger Operation: John Eastwood, Dark n Bright 80’s",
    "genres": [],
    "links": [],
    "sourceUrl": "https://www.goldenes-fass.ch/saali/",
    "time": 2019-12-13 22:00 (Europe/Zurich),
    "venueName": "Sääli",
  },
  EventData {
    "description": "Soul Kollage: DJs: Whoopack, Nemoy, Leila Moon, Whookey, Sou, Funk, Afrobeat, Hip Hop",
    "genres": [],
    "links": [
      {
        "label": "Soul Kollage",
        "url": "https://www.facebook.com/events/699300757228254/?notif_t=plan_user_joined&notif_id=1575822098409524",
      },
    ],
    "sourceUrl": "https://www.goldenes-fass.ch/saali/",
    "time": 2019-12-14 22:00 (Europe/Zurich),
    "venueName": "Sääli",
  },
  EventData {
    "description": "Rumba BoxX: Jalliman & Rootsprov, Calypso, Rumba, Ska, Mento",
    "genres": [],
    "links": [],
    "sourceUrl": "https://www.goldenes-fass.ch/saali/",
    "time": 2019-12-20 22:00 (Europe/Zurich),
    "venueName": "Sääli",
  },
  EventData {
    "description": "Pop Bingo: DJ Psycho Jonas, Bingo und Hartdisko",
    "genres": [],
    "links": [],
    "sourceUrl": "https://www.goldenes-fass.ch/saali/",
    "time": 2019-12-21 22:00 (Europe/Zurich),
    "venueName": "Sääli",
  },
  EventData {
    "description": "Deep Diving Thursday: Salz, streut",
    "genres": [],
    "links": [],
    "sourceUrl": "https://www.goldenes-fass.ch/saali/",
    "time": 2019-12-26 22:00 (Europe/Zurich),
    "venueName": "Sääli",
  },
  EventData {
    "description": "Something Between: DJ Splash & Mehrsalz, Pop und so…",
    "genres": [],
    "links": [],
    "sourceUrl": "https://www.goldenes-fass.ch/saali/",
    "time": 2019-12-27 22:00 (Europe/Zurich),
    "venueName": "Sääli",
  },
  EventData {
    "description": "Sonido: World",
    "genres": [],
    "links": [],
    "sourceUrl": "https://www.goldenes-fass.ch/saali/",
    "time": 2019-12-28 22:00 (Europe/Zurich),
    "venueName": "Sääli",
  },
]
`;

exports[`Sääli Sääli-2020-03-15 1`] = `
[
  EventData {
    "description": "Deep Diving Thursday: Mirielle Mondieu",
    "genres": [],
    "links": [],
    "sourceUrl": "https://www.goldenes-fass.ch/saali/",
    "time": 2020-03-05 22:00 (Europe/Zurich),
    "venueName": "Sääli",
  },
  EventData {
    "description": "Cloak ’n Dagger Operation: John Eastwood, Bright ’n Dark 80’s",
    "genres": [],
    "links": [],
    "sourceUrl": "https://www.goldenes-fass.ch/saali/",
    "time": 2020-03-06 22:00 (Europe/Zurich),
    "venueName": "Sääli",
  },
  EventData {
    "description": "Raunchy Rawhide Chicken: 10 DJs 100s of vinyl pearls, Old Soul, Rock n Roll, Ska, Blues & Boogie",
    "genres": [],
    "links": [],
    "sourceUrl": "https://www.goldenes-fass.ch/saali/",
    "time": 2020-03-07 22:00 (Europe/Zurich),
    "venueName": "Sääli",
  },
  EventData {
    "description": "Standup Basel: Deutscher Standup Comedy OpenMic, anschliessend, Deep Diving Thursday",
    "genres": [],
    "links": [
      {
        "label": "Standup Basel",
        "url": "https://facebook.com/events/s/deutscher-standup-comedy-openm/2551503255093204/?ti=ia",
      },
    ],
    "sourceUrl": "https://www.goldenes-fass.ch/saali/",
    "time": 2020-03-12 22:00 (Europe/Zurich),
    "venueName": "Sääli",
  },
  EventData {
    "description": "Psycho Jonas: Bingo, HartDisko",
    "genres": [],
    "links": [],
    "sourceUrl": "https://www.goldenes-fass.ch/saali/",
    "time": 2020-03-14 22:00 (Europe/Zurich),
    "venueName": "Sääli",
  },
  EventData {
    "description": "Deep Diving Thursday",
    "genres": [],
    "links": [],
    "sourceUrl": "https://www.goldenes-fass.ch/saali/",
    "time": 2020-03-19 22:00 (Europe/Zurich),
    "venueName": "Sääli",
  },
  EventData {
    "description": "Rumba BoxX: Jalliman & Rootsprov, Calypso, Rumba, Ska, Mento",
    "genres": [],
    "links": [],
    "sourceUrl": "https://www.goldenes-fass.ch/saali/",
    "time": 2020-03-20 22:00 (Europe/Zurich),
    "venueName": "Sääli",
  },
  EventData {
    "description": "Villiger Chrum: DJ Hunkeler & Hunziker, Tanzmusik",
    "genres": [],
    "links": [],
    "sourceUrl": "https://www.goldenes-fass.ch/saali/",
    "time": 2020-03-21 22:00 (Europe/Zurich),
    "venueName": "Sääli",
  },
  EventData {
    "description": "Deep Diving Thursday",
    "genres": [],
    "links": [],
    "sourceUrl": "https://www.goldenes-fass.ch/saali/",
    "time": 2020-03-26 22:00 (Europe/Zurich),
    "venueName": "Sääli",
  },
  EventData {
    "description": "Peaches & Prunes: Nevo, Truedate, Zwirbel, Lowpan, Disco, Balearic, Stampf",
    "genres": [],
    "links": [],
    "sourceUrl": "https://www.goldenes-fass.ch/saali/",
    "time": 2020-03-27 22:00 (Europe/Zurich),
    "venueName": "Sääli",
  },
  EventData {
    "description": "Sound Resistance presents: Tlb, Funky Ciorba, and Friends, Funk and Psychedelic",
    "genres": [],
    "links": [],
    "sourceUrl": "https://www.goldenes-fass.ch/saali/",
    "time": 2020-03-28 22:00 (Europe/Zurich),
    "venueName": "Sääli",
  },
]
`;

exports[`Sääli Sääli-2020-06-06 1`] = `[]`;

exports[`Sääli Sääli-2022-11-17 1`] = `
[
  EventData {
    "description": "A Slippery Bar Of Soap: Stefan Steffen Stefanson, 80’s Synthpop & Indie",
    "genres": [],
    "links": [],
    "sourceUrl": "https://www.goldenes-fass.ch/saali/",
    "time": 2022-11-04 22:00 (Europe/Zurich),
    "venueName": "Sääli",
  },
  EventData {
    "description": "Raunchy Rawhide Chicken: Guest DJ Buddy, Blues’n Boogie, Soul, Rock’n Roll, Ska, Exotica",
    "genres": [],
    "links": [
      {
        "label": "Raunchy Rawhide Chicken",
        "url": "https://www.facebook.com/TheRRHC",
      },
    ],
    "sourceUrl": "https://www.goldenes-fass.ch/saali/",
    "time": 2022-11-05 22:00 (Europe/Zurich),
    "venueName": "Sääli",
  },
  EventData {
    "description": "Sbb: Schallplattenfreunde Beider Basel, Pop, Trash, Electronica",
    "genres": [],
    "links": [],
    "sourceUrl": "https://www.goldenes-fass.ch/saali/",
    "time": 2022-11-11 22:00 (Europe/Zurich),
    "venueName": "Sääli",
  },
  EventData {
    "description": "Twangy Night: DJ B-Slap, Soul, Pop, Hip Hop, Rock",
    "genres": [],
    "links": [],
    "sourceUrl": "https://www.goldenes-fass.ch/saali/",
    "time": 2022-11-12 22:00 (Europe/Zurich),
    "venueName": "Sääli",
  },
  EventData {
    "description": "Rumba BoxX: Calypso Time! DJs Jallimann & Rootspro, Mento, Calypso, Ska, Reggae",
    "genres": [],
    "links": [
      {
        "label": "Rumba BoxX",
        "url": "https://www.facebook.com/rumbaboxx",
      },
    ],
    "sourceUrl": "https://www.goldenes-fass.ch/saali/",
    "time": 2022-11-18 22:00 (Europe/Zurich),
    "venueName": "Sääli",
  },
]
`;
