// Jest Snapshot v1, https://goo.gl/fbAQLP

exports[`Mehrspur mehrspur-2021-10-16 1`] = `
[
  EventData {
    "description": "Ausstellung Debora Gerber",
    "genres": [
      "kunst",
    ],
    "links": [
      {
        "label": "Mehrspur",
        "url": "https://www.mehrspur.ch/veranstaltungen/ausstellung-debora-gerber",
      },
    ],
    "sourceUrl": "https://www.mehrspur.ch/veranstaltungen",
    "time": 2021-10-14 17:00 (Europe/Zurich),
    "venueName": "Mehrspur",
  },
  EventData {
    "description": "Jazzraum Jam Night",
    "genres": [
      "jazz",
    ],
    "links": [
      {
        "label": "Mehrspur",
        "url": "https://www.mehrspur.ch/veranstaltungen/jazzraum-jam-night-4",
      },
    ],
    "sourceUrl": "https://www.mehrspur.ch/veranstaltungen",
    "time": 2021-10-19 20:00 (Europe/Zurich),
    "venueName": "Mehrspur",
  },
  EventData {
    "description": "Tonis Mittwoch",
    "genres": [
      "funk",
      "pop",
      "soul",
      "world",
    ],
    "links": [
      {
        "label": "Mehrspur",
        "url": "https://www.mehrspur.ch/veranstaltungen/tonis-mittwoch-3",
      },
    ],
    "sourceUrl": "https://www.mehrspur.ch/veranstaltungen",
    "time": 2021-10-20 17:30 (Europe/Zurich),
    "venueName": "Mehrspur",
  },
  EventData {
    "description": "Dksj All Stars feat. Furio Di Castri",
    "genres": [
      "jazz",
    ],
    "links": [
      {
        "label": "Mehrspur",
        "url": "https://www.mehrspur.ch/veranstaltungen/dksj-all-stars-feat-furio-di-castri",
      },
    ],
    "sourceUrl": "https://www.mehrspur.ch/veranstaltungen",
    "time": 2021-10-23 20:30 (Europe/Zurich),
    "venueName": "Mehrspur",
  },
  EventData {
    "description": "Justine Tornay's Llyv",
    "genres": [
      "jazz",
    ],
    "links": [
      {
        "label": "Mehrspur",
        "url": "https://www.mehrspur.ch/veranstaltungen/justine-tornays-llyv",
      },
    ],
    "sourceUrl": "https://www.mehrspur.ch/veranstaltungen",
    "time": 2021-10-25 20:30 (Europe/Zurich),
    "venueName": "Mehrspur",
  },
  EventData {
    "description": "Lea Stubers Oog",
    "genres": [
      "elektronisch",
      "jazz",
      "pop",
    ],
    "links": [
      {
        "label": "Mehrspur",
        "url": "https://www.mehrspur.ch/veranstaltungen/lea-stubers-oog",
      },
    ],
    "sourceUrl": "https://www.mehrspur.ch/veranstaltungen",
    "time": 2021-10-25 22:00 (Europe/Zurich),
    "venueName": "Mehrspur",
  },
  EventData {
    "description": "Noé's playground",
    "genres": [
      "jazz",
    ],
    "links": [
      {
        "label": "Mehrspur",
        "url": "https://www.mehrspur.ch/veranstaltungen/noes-playground",
      },
    ],
    "sourceUrl": "https://www.mehrspur.ch/veranstaltungen",
    "time": 2021-10-26 20:30 (Europe/Zurich),
    "venueName": "Mehrspur",
  },
  EventData {
    "description": "Bureau Bureau",
    "genres": [
      "jazz",
    ],
    "links": [
      {
        "label": "Mehrspur",
        "url": "https://www.mehrspur.ch/veranstaltungen/bureau-bureau",
      },
    ],
    "sourceUrl": "https://www.mehrspur.ch/veranstaltungen",
    "time": 2021-10-26 22:00 (Europe/Zurich),
    "venueName": "Mehrspur",
  },
  EventData {
    "description": "Tonis Mittwoch",
    "genres": [
      "elektronisch",
      "funk",
      "soul",
    ],
    "links": [
      {
        "label": "Mehrspur",
        "url": "https://www.mehrspur.ch/veranstaltungen/tonis-mittwoch-6",
      },
    ],
    "sourceUrl": "https://www.mehrspur.ch/veranstaltungen",
    "time": 2021-10-27 17:30 (Europe/Zurich),
    "venueName": "Mehrspur",
  },
  EventData {
    "description": "Balou & Pop Jam",
    "genres": [
      "pop",
    ],
    "links": [
      {
        "label": "Mehrspur",
        "url": "https://www.mehrspur.ch/veranstaltungen/balou-pop-jam",
      },
    ],
    "sourceUrl": "https://www.mehrspur.ch/veranstaltungen",
    "time": 2021-10-28 20:00 (Europe/Zurich),
    "venueName": "Mehrspur",
  },
  EventData {
    "description": "Hong",
    "genres": [
      "pop",
      "singer-songwriter",
    ],
    "links": [
      {
        "label": "Mehrspur",
        "url": "https://www.mehrspur.ch/veranstaltungen/21047",
      },
    ],
    "sourceUrl": "https://www.mehrspur.ch/veranstaltungen",
    "time": 2021-10-29 20:30 (Europe/Zurich),
    "venueName": "Mehrspur",
  },
  EventData {
    "description": "Bell Baronets",
    "genres": [
      "alternative",
      "pop",
    ],
    "links": [
      {
        "label": "Mehrspur",
        "url": "https://www.mehrspur.ch/veranstaltungen/bell-baronets-4",
      },
    ],
    "sourceUrl": "https://www.mehrspur.ch/veranstaltungen",
    "time": 2021-10-29 22:00 (Europe/Zurich),
    "venueName": "Mehrspur",
  },
  EventData {
    "description": "Silent neighbor",
    "genres": [
      "alternative",
      "pop",
      "singer-songwriter",
    ],
    "links": [
      {
        "label": "Mehrspur",
        "url": "https://www.mehrspur.ch/veranstaltungen/silent-neighbor-3",
      },
    ],
    "sourceUrl": "https://www.mehrspur.ch/veranstaltungen",
    "time": 2021-10-29 23:30 (Europe/Zurich),
    "venueName": "Mehrspur",
  },
  EventData {
    "description": "Sequoia",
    "genres": [
      "hip-hop",
      "soul",
    ],
    "links": [
      {
        "label": "Mehrspur",
        "url": "https://www.mehrspur.ch/veranstaltungen/sequoia-2",
      },
    ],
    "sourceUrl": "https://www.mehrspur.ch/veranstaltungen",
    "time": 2021-10-30 20:30 (Europe/Zurich),
    "venueName": "Mehrspur",
  },
  EventData {
    "description": "Miss C-Line",
    "genres": [
      "hip-hop",
      "soul",
    ],
    "links": [
      {
        "label": "Mehrspur",
        "url": "https://www.mehrspur.ch/veranstaltungen/miss-c-line",
      },
    ],
    "sourceUrl": "https://www.mehrspur.ch/veranstaltungen",
    "time": 2021-10-30 22:00 (Europe/Zurich),
    "venueName": "Mehrspur",
  },
  EventData {
    "description": "Good Groove DJ Late Night",
    "genres": [
      "elektronisch",
      "funk",
      "hip-hop",
      "soul",
      "world",
    ],
    "links": [
      {
        "label": "Mehrspur",
        "url": "https://www.mehrspur.ch/veranstaltungen/dj-late-night",
      },
    ],
    "sourceUrl": "https://www.mehrspur.ch/veranstaltungen",
    "time": 2021-10-30 23:30 (Europe/Zurich),
    "venueName": "Mehrspur",
  },
  EventData {
    "description": "Ducadu",
    "genres": [
      "jazz",
    ],
    "links": [
      {
        "label": "Mehrspur",
        "url": "https://www.mehrspur.ch/veranstaltungen/ducadu-jam-night",
      },
    ],
    "sourceUrl": "https://www.mehrspur.ch/veranstaltungen",
    "time": 2021-11-02 20:00 (Europe/Zurich),
    "venueName": "Mehrspur",
  },
  EventData {
    "description": "Tonis Mittwoch",
    "genres": [
      "elektronisch",
    ],
    "links": [
      {
        "label": "Mehrspur",
        "url": "https://www.mehrspur.ch/veranstaltungen/tonis-mittwoch-7",
      },
    ],
    "sourceUrl": "https://www.mehrspur.ch/veranstaltungen",
    "time": 2021-11-03 17:30 (Europe/Zurich),
    "venueName": "Mehrspur",
  },
  EventData {
    "description": "Ausstellung Barbara Cahn",
    "genres": [],
    "links": [
      {
        "label": "Mehrspur",
        "url": "https://www.mehrspur.ch/veranstaltungen/ausstellung-barbara-cahn-fertiggegessen",
      },
    ],
    "sourceUrl": "https://www.mehrspur.ch/veranstaltungen",
    "time": 2021-11-04 17:00 (Europe/Zurich),
    "venueName": "Mehrspur",
  },
  EventData {
    "description": "The Latin Jam Night",
    "genres": [
      "funk",
      "jazz",
      "latin",
    ],
    "links": [
      {
        "label": "Mehrspur",
        "url": "https://www.mehrspur.ch/veranstaltungen/the-latin-jam-night",
      },
    ],
    "sourceUrl": "https://www.mehrspur.ch/veranstaltungen",
    "time": 2021-11-09 20:00 (Europe/Zurich),
    "venueName": "Mehrspur",
  },
  EventData {
    "description": "Tonis Mittwoch",
    "genres": [
      "elektronisch",
      "world",
    ],
    "links": [
      {
        "label": "Mehrspur",
        "url": "https://www.mehrspur.ch/veranstaltungen/tonis-mittwoch-9",
      },
    ],
    "sourceUrl": "https://www.mehrspur.ch/veranstaltungen",
    "time": 2021-11-10 17:30 (Europe/Zurich),
    "venueName": "Mehrspur",
  },
  EventData {
    "description": "Café da Manhã",
    "genres": [
      "jazz",
      "latin",
    ],
    "links": [
      {
        "label": "Mehrspur",
        "url": "https://www.mehrspur.ch/veranstaltungen/cafe-da-manha-3",
      },
    ],
    "sourceUrl": "https://www.mehrspur.ch/veranstaltungen",
    "time": 2021-11-11 20:30 (Europe/Zurich),
    "venueName": "Mehrspur",
  },
  EventData {
    "description": "Rodrigo Botter Maio & Jazz Via Brasil Sextett",
    "genres": [
      "funk",
      "jazz",
      "latin",
    ],
    "links": [
      {
        "label": "Mehrspur",
        "url": "https://www.mehrspur.ch/veranstaltungen/rodrigo-botter-maio-jazz-via-brasil-sextett",
      },
    ],
    "sourceUrl": "https://www.mehrspur.ch/veranstaltungen",
    "time": 2021-11-11 22:00 (Europe/Zurich),
    "venueName": "Mehrspur",
  },
  EventData {
    "description": "Friskit",
    "genres": [
      "dub",
      "reggae",
      "world",
    ],
    "links": [
      {
        "label": "Mehrspur",
        "url": "https://www.mehrspur.ch/veranstaltungen/friskit",
      },
    ],
    "sourceUrl": "https://www.mehrspur.ch/veranstaltungen",
    "time": 2021-11-12 20:30 (Europe/Zurich),
    "venueName": "Mehrspur",
  },
  EventData {
    "description": "Jar",
    "genres": [
      "dub",
      "reggae",
      "world",
    ],
    "links": [
      {
        "label": "Mehrspur",
        "url": "https://www.mehrspur.ch/veranstaltungen/jar",
      },
    ],
    "sourceUrl": "https://www.mehrspur.ch/veranstaltungen",
    "time": 2021-11-12 22:00 (Europe/Zurich),
    "venueName": "Mehrspur",
  },
  EventData {
    "description": "Basement Roots",
    "genres": [
      "dub",
      "reggae",
      "world",
    ],
    "links": [
      {
        "label": "Mehrspur",
        "url": "https://www.mehrspur.ch/veranstaltungen/basement-roots",
      },
    ],
    "sourceUrl": "https://www.mehrspur.ch/veranstaltungen",
    "time": 2021-11-12 23:30 (Europe/Zurich),
    "venueName": "Mehrspur",
  },
  EventData {
    "description": "Dubbin Jungle Late Night",
    "genres": [
      "drum-bass",
      "dub",
      "elektronisch",
      "reggae",
      "world",
    ],
    "links": [
      {
        "label": "Mehrspur",
        "url": "https://www.mehrspur.ch/veranstaltungen/dub-groove",
      },
    ],
    "sourceUrl": "https://www.mehrspur.ch/veranstaltungen",
    "time": 2021-11-12 23:59 (Europe/Zurich),
    "venueName": "Mehrspur",
  },
  EventData {
    "description": "Sebass",
    "genres": [
      "balkan-beats",
    ],
    "links": [
      {
        "label": "Mehrspur",
        "url": "https://www.mehrspur.ch/veranstaltungen/sebass-5",
      },
    ],
    "sourceUrl": "https://www.mehrspur.ch/veranstaltungen",
    "time": 2021-11-13 20:30 (Europe/Zurich),
    "venueName": "Mehrspur",
  },
  EventData {
    "description": "The Nozez",
    "genres": [
      "balkan-beats",
    ],
    "links": [
      {
        "label": "Mehrspur",
        "url": "https://www.mehrspur.ch/veranstaltungen/the-nozez-2",
      },
    ],
    "sourceUrl": "https://www.mehrspur.ch/veranstaltungen",
    "time": 2021-11-13 22:00 (Europe/Zurich),
    "venueName": "Mehrspur",
  },
  EventData {
    "description": "Balkan Beats Late Night",
    "genres": [
      "balkan-beats",
    ],
    "links": [
      {
        "label": "Mehrspur",
        "url": "https://www.mehrspur.ch/veranstaltungen/balkan-beats-late-night",
      },
    ],
    "sourceUrl": "https://www.mehrspur.ch/veranstaltungen",
    "time": 2021-11-13 23:59 (Europe/Zurich),
    "venueName": "Mehrspur",
  },
  EventData {
    "description": "Pino Zortea's Jazz Karussell + Jam Night",
    "genres": [
      "jazz",
    ],
    "links": [
      {
        "label": "Mehrspur",
        "url": "https://www.mehrspur.ch/veranstaltungen/pino-zorteas-jazz-karussell",
      },
    ],
    "sourceUrl": "https://www.mehrspur.ch/veranstaltungen",
    "time": 2021-11-16 20:00 (Europe/Zurich),
    "venueName": "Mehrspur",
  },
  EventData {
    "description": "Tonis Mittwoch",
    "genres": [
      "hip-hop",
      "soul",
    ],
    "links": [
      {
        "label": "Mehrspur",
        "url": "https://www.mehrspur.ch/veranstaltungen/tonis-mittwoch-8",
      },
    ],
    "sourceUrl": "https://www.mehrspur.ch/veranstaltungen",
    "time": 2021-11-17 17:30 (Europe/Zurich),
    "venueName": "Mehrspur",
  },
  EventData {
    "description": "Eth Big Band",
    "genres": [
      "jazz",
    ],
    "links": [
      {
        "label": "Mehrspur",
        "url": "https://www.mehrspur.ch/veranstaltungen/eth-big-band-6",
      },
    ],
    "sourceUrl": "https://www.mehrspur.ch/veranstaltungen",
    "time": 2021-11-19 20:30 (Europe/Zurich),
    "venueName": "Mehrspur",
  },
  EventData {
    "description": "Ikue Mori",
    "genres": [
      "jazz",
    ],
    "links": [
      {
        "label": "Mehrspur",
        "url": "https://www.mehrspur.ch/veranstaltungen/ikue-mori",
      },
    ],
    "sourceUrl": "https://www.mehrspur.ch/veranstaltungen",
    "time": 2021-11-22 20:30 (Europe/Zurich),
    "venueName": "Mehrspur",
  },
  EventData {
    "description": "Tonis Mittwoch",
    "genres": [
      "hip-hop",
      "soul",
    ],
    "links": [
      {
        "label": "Mehrspur",
        "url": "https://www.mehrspur.ch/veranstaltungen/tonis-mittwoch-5",
      },
    ],
    "sourceUrl": "https://www.mehrspur.ch/veranstaltungen",
    "time": 2021-11-23 17:30 (Europe/Zurich),
    "venueName": "Mehrspur",
  },
  EventData {
    "description": "Yaëlzoë & Pop Jam",
    "genres": [
      "pop",
      "singer-songwriter",
    ],
    "links": [
      {
        "label": "Mehrspur",
        "url": "https://www.mehrspur.ch/veranstaltungen/yaelzoe__trashed",
      },
    ],
    "sourceUrl": "https://www.mehrspur.ch/veranstaltungen",
    "time": 2021-11-25 20:00 (Europe/Zurich),
    "venueName": "Mehrspur",
  },
  EventData {
    "description": "Fjälla",
    "genres": [
      "alternative",
      "folk",
      "pop",
      "singer-songwriter",
    ],
    "links": [
      {
        "label": "Mehrspur",
        "url": "https://www.mehrspur.ch/veranstaltungen/fjaella",
      },
    ],
    "sourceUrl": "https://www.mehrspur.ch/veranstaltungen",
    "time": 2021-11-26 20:30 (Europe/Zurich),
    "venueName": "Mehrspur",
  },
  EventData {
    "description": "Messina",
    "genres": [
      "alternative",
      "pop",
    ],
    "links": [
      {
        "label": "Mehrspur",
        "url": "https://www.mehrspur.ch/veranstaltungen/messina-2",
      },
    ],
    "sourceUrl": "https://www.mehrspur.ch/veranstaltungen",
    "time": 2021-11-26 22:00 (Europe/Zurich),
    "venueName": "Mehrspur",
  },
  EventData {
    "description": "Ikan Hyu",
    "genres": [
      "elektronisch",
      "pop",
    ],
    "links": [
      {
        "label": "Mehrspur",
        "url": "https://www.mehrspur.ch/veranstaltungen/ikan-hyu-4",
      },
    ],
    "sourceUrl": "https://www.mehrspur.ch/veranstaltungen",
    "time": 2021-11-26 23:30 (Europe/Zurich),
    "venueName": "Mehrspur",
  },
  EventData {
    "description": "Jazzraum Jam Night",
    "genres": [
      "jazz",
    ],
    "links": [
      {
        "label": "Mehrspur",
        "url": "https://www.mehrspur.ch/veranstaltungen/jazzraum-jam-night-3",
      },
    ],
    "sourceUrl": "https://www.mehrspur.ch/veranstaltungen",
    "time": 2021-11-30 20:00 (Europe/Zurich),
    "venueName": "Mehrspur",
  },
  EventData {
    "description": "Joscha Schraff Trio & Jam Night",
    "genres": [
      "jazz",
    ],
    "links": [
      {
        "label": "Mehrspur",
        "url": "https://www.mehrspur.ch/veranstaltungen/joscha-schraff-trio-jam-night-2",
      },
    ],
    "sourceUrl": "https://www.mehrspur.ch/veranstaltungen",
    "time": 2021-11-30 20:00 (Europe/Zurich),
    "venueName": "Mehrspur",
  },
]
`;
